{
  "name": "@rxts/pkgr",
  "version": 2,
  "alias": [
    "pkgr.vercel.app"
  ],
  "github": {
    "silent": true
  },
  "builds": [
    {
      "src": "package.json",
      "use": "@vercel/static-build"
    }
  ],
  "redirects": [
    {
      "source": "/",
      "destination": "/svelte"
    }
  ],
  "trailingSlash": true
}
